module gitlab.com/trhhosting/coredns

go 1.13

require (
	github.com/Azure/azure-sdk-for-go v40.6.0+incompatible
	github.com/Azure/go-autorest/autorest v0.11.13
	github.com/Azure/go-autorest/autorest/azure/auth v0.5.5
	github.com/DataDog/datadog-go v3.5.0+incompatible // indirect
	github.com/aws/aws-sdk-go v1.36.7
	github.com/caddyserver/caddy v1.0.3
	github.com/cenkalti/backoff/v4 v4.1.0
	github.com/dnstap/golang-dnstap v0.3.0
	github.com/farsightsec/golang-framestream v0.3.0
	github.com/golang/protobuf v1.4.3
	github.com/grpc-ecosystem/grpc-opentracing v0.0.0-20180507213350-8e809c8a8645
	github.com/hashicorp/golang-lru v0.5.4 // indirect
	github.com/imdario/mergo v0.3.9 // indirect
	github.com/infobloxopen/go-trees v0.0.0-20190313150506-2af4e13f9062
	github.com/jinzhu/gorm v1.9.16
	github.com/matttproud/golang_protobuf_extensions v1.0.1
	github.com/miekg/dns v1.1.35
	github.com/opentracing/opentracing-go v1.2.0
	github.com/openzipkin-contrib/zipkin-go-opentracing v0.4.5
	github.com/openzipkin/zipkin-go v0.2.2
	github.com/prometheus/client_golang v1.8.0
	github.com/prometheus/client_model v0.2.0
	github.com/prometheus/common v0.14.0
	github.com/wenerme/wps v0.0.0-20191105094758-5c216d826ac7
	gitlab.com/trhhosting/caddy v0.0.0-20201218232002-7749f1d7e06a
	go.etcd.io/etcd v0.5.0-alpha.5.0.20200306183522-221f0cc107cb
	go.uber.org/zap v1.14.1 // indirect
	golang.org/x/crypto v0.0.0-20201002170205-7f63de1d35b0
	golang.org/x/net v0.0.0-20201110031124-69a78807bb2b
	golang.org/x/sys v0.0.0-20201119102817-f84b799fce68
	google.golang.org/api v0.29.0
	google.golang.org/grpc v1.29.1
	gopkg.in/DataDog/dd-trace-go.v1 v1.27.1
	k8s.io/api v0.20.0
	k8s.io/apimachinery v0.20.0
	k8s.io/client-go v0.20.0
	k8s.io/klog v1.0.0
)
